{
  "format": "linked-data-api",
  "version": "0.2",
  "result": {
    "_about": "http://lda.data.parliament.uk/constituencies.json",
    "definition": "http://lda.data.parliament.uk/meta/constituencies.json",
    "extendedMetadataVersion": "http://lda.data.parliament.uk/constituencies.json?_metadata=all",
    "first": "http://lda.data.parliament.uk/constituencies.json?_page=0",
    "hasPart": "http://lda.data.parliament.uk/constituencies.json",
    "isPartOf": "http://lda.data.parliament.uk/constituencies.json",
    "items": [
      {
        "_about": "http://data.parliament.uk/resources/143461",
        "constituencyType": "",
        "endedDate": {
          "_value": "1950-02-23",
          "_datatype": "dateTime"
        },
        "gssCode": "",
        "label": {
          "_value": "Aberavon"
        },
        "osName": "",
        "startedDate": {
          "_value": "1918-12-14",
          "_datatype": "dateTime"
        }
      },
      {
        "_about": "http://data.parliament.uk/resources/143462",
        "constituencyType": "",
        "endedDate": {
          "_value": "1974-02-28",
          "_datatype": "dateTime"
        },
        "gssCode": "",
        "label": {
          "_value": "Aberavon"
        },
        "osName": "",
        "startedDate": {
          "_value": "1950-02-23",
          "_datatype": "dateTime"
        }
      },
      {
        "_about": "http://data.parliament.uk/resources/143463",
        "constituencyType": "County",
        "endedDate": {
          "_value": "1983-06-09",
          "_datatype": "dateTime"
        },
        "gssCode": "",
        "label": {
          "_value": "Aberavon"
        },
        "osName": "",
        "startedDate": {
          "_value": "1974-02-28",
          "_datatype": "dateTime"
        }
      },
      {
        "_about": "http://data.parliament.uk/resources/143464",
        "constituencyType": "County",
        "endedDate": {
          "_value": "1997-05-01",
          "_datatype": "dateTime"
        },
        "gssCode": "",
        "label": {
          "_value": "Aberavon"
        },
        "osName": "",
        "startedDate": {
          "_value": "1983-06-09",
          "_datatype": "dateTime"
        }
      },
      {
        "_about": "http://data.parliament.uk/resources/143465",
        "constituencyType": "County",
        "endedDate": {
          "_value": "2010-05-06",
          "_datatype": "dateTime"
        },
        "gssCode": "",
        "label": {
          "_value": "Aberavon"
        },
        "osName": "Aberavon Co Const",
        "startedDate": {
          "_value": "1997-05-01",
          "_datatype": "dateTime"
        }
      },
      {
        "_about": "http://data.parliament.uk/resources/146747",
        "constituencyType": "County",
        "gssCode": "W07000049",
        "label": {
          "_value": "Aberavon"
        },
        "osName": "",
        "startedDate": {
          "_value": "2010-05-06",
          "_datatype": "dateTime"
        }
      },
      {
        "_about": "http://data.parliament.uk/resources/146748",
        "constituencyType": "County",
        "gssCode": "W07000058",
        "label": {
          "_value": "Aberconwy"
        },
        "osName": "Aberconwy Co Const",
        "startedDate": {
          "_value": "2010-05-06",
          "_datatype": "dateTime"
        }
      },
      {
        "_about": "http://data.parliament.uk/resources/143466",
        "constituencyType": "",
        "endedDate": {
          "_value": "1974-02-28",
          "_datatype": "dateTime"
        },
        "gssCode": "",
        "label": {
          "_value": "Aberdare"
        },
        "osName": "",
        "startedDate": {
          "_value": "1950-02-23",
          "_datatype": "dateTime"
        }
      },
      {
        "_about": "http://data.parliament.uk/resources/143467",
        "constituencyType": "Borough",
        "endedDate": {
          "_value": "1983-06-09",
          "_datatype": "dateTime"
        },
        "gssCode": "",
        "label": {
          "_value": "Aberdare"
        },
        "osName": "",
        "startedDate": {
          "_value": "1974-02-28",
          "_datatype": "dateTime"
        }
      },
      {
        "_about": "http://data.parliament.uk/resources/143468",
        "constituencyType": "Borough",
        "endedDate": {
          "_value": "2005-05-05",
          "_datatype": "dateTime"
        },
        "gssCode": "",
        "label": {
          "_value": "Aberdeen Central"
        },
        "osName": "Aberdeen Central Burgh Const",
        "startedDate": {
          "_value": "1997-05-01",
          "_datatype": "dateTime"
        }
      }
    ],
    "itemsPerPage": 10,
    "next": "http://lda.data.parliament.uk/constituencies.json?_page=1",
    "page": 0,
    "startIndex": 1,
    "totalResults": 3877,
    "type": [
      "http://purl.org/linked-data/api/vocab#ListEndpoint",
      "http://purl.org/linked-data/api/vocab#Page"
    ]
  }
}
